%YAML 1.1
%TAG !u! tag:unity3d.com,2011:
--- !u!114 &11400000
MonoBehaviour:
  m_ObjectHideFlags: 0
  m_CorrespondingSourceObject: {fileID: 0}
  m_PrefabInstance: {fileID: 0}
  m_PrefabAsset: {fileID: 0}
  m_GameObject: {fileID: 0}
  m_Enabled: 1
  m_EditorHideFlags: 0
  m_Script: {fileID: 11500000, guid: ccf807fc308b2d042811d7fe7e0c2fd2, type: 3}
  m_Name: Octopus
  m_EditorClassIdentifier: 
  OccurrenceMean: 1
  OccurrenceStdDev: 0.5
  PopulationFactor: 5
  FoodFactor: 3
  FearFactor: 7
